[{ "id": 1, "price": "610 258 грн.", "photo": "https://ireland.apollo.olxcdn.com/v1/files/a2o09jgdjsmd2-UA/image;s=644x461", "url": "https://www.olx.ua", "name": "Toyota FJ", "article": "57520-0411" },
    { "id": 2, "price": "413 283 грн.", "photo": "https://ireland.apollo.olxcdn.com/v1/files/68zyd98yo3d23-UA/image;s=644x461", "url": "https://www.olx.ua", "name": "Volkswagen", "article": "54868443693" },
    { "id": 3, "price": "158 112 грн.", "photo": "https://ireland.apollo.olxcdn.com/v1/files/gft4pje4zd081-UA/image;s=644x461", "url": "https://www.olx.ua", "name": "Mini one", "article": "63187452127" },
    { "id": 4, "price": "$893 196 грн.", "photo": "https://ireland.apollo.olxcdn.com/v1/files/ukook8c6s94d1-UA/image;s=644x461", "url": "https://www.olx.ua", "name": "Jeep Wrangler", "article": "3014244403" },
    { "id": 5, "price": "485 433 грн.", "photo": "https://ireland.apollo.olxcdn.com/v1/files/xnyfur876pd81-UA/image;s=644x461", "url": "https://www.olx.ua", "name": "Nissan rogue", "article": "529655866201" },
    { "id": 6, "price": "194 145 грн.", "photo": "https://ireland.apollo.olxcdn.com/v1/files/fn3v3s9bkhen3-UA/image;s=644x461", "url": "https://www.olx.ua", "name": "Mazda 6", "article": "2169577635" },
    { "id": 7, "price": "235 782 грн.", "photo": "https://ireland.apollo.olxcdn.com/v1/files/sge8hj22mx703-UA/image;s=644x461", "url": "https://www.olx.ua", "name": "Chevrolet Sonik", "article": "52344304476" },
    { "id": 8, "price": "409 899 грн.", "photo": "https://ireland.apollo.olxcdn.com/v1/files/ckd6791sac7r2-UA/image;s=644x461", "url": "https://www.olx.ua", "name": "Mersedes Bens ", "article": "001193744658" },
    { "id": 9, "price": "327 320 грн.", "photo": "https://ireland.apollo.olxcdn.com/v1/files/6q0w14q4ov7i3-UA/image;s=644x461", "url": "https://www.olx.ua", "name": "Nissan Juke SL", "article": "01731042249" },
    { "id": 10, "price": "357 833 грн.", "photo": "https://ireland.apollo.olxcdn.com/v1/files/6cumm94siefm2-UA/image;s=644x461", "url": "https://www.olx.ua", "name": "Skoda Octavia A7", "article": "3177722377" },
    { "id": 11, "price": "887 620 грн.", "photo": "https://ireland.apollo.olxcdn.com/v1/files/qd6c73lwsjn41-UA/image;s=644x461", "url": "https://www.olx.ua", "name": "Volvo XC90", "article": "48230824234491" },
    { "id": 12, "price": "327 320 грн.", "photo": "https://ireland.apollo.olxcdn.com/v1/files/3nfyiwa577j61-UA/image;s=644x461", "url": "https://www.olx.ua", "name": "Mitsubishi lancer", "article": "4823082423507" }
]