{
  "posts": [
    {
      "title": "123",
      "intro": "qwe",
      "text": "qwe",
      "date": "2021-09-09",
      "author": "qwe",
      "id": 1
    },
    {
      "title": "qweqwe",
      "intro": "qweqwe",
      "text": "qweqweqw",
      "date": "2021-09-01",
      "author": "qweqwe",
      "id": 2
    },
    {
      "title": "Js",
      "intro": "Js very goood",
      "text": "JSSSSS VERYYY GOOOOOD",
      "date": "2021-09-02",
      "author": "Matvey",
      "id": 3
    },
    {
      "title": "sss",
      "intro": "ss",
      "text": "sss",
      "date": "2021-09-06",
      "author": "ss",
      "id": 4
    }
  ],
  "comments": [],
  "profile": {
    "name": "typicode"
  }
}